Supplier,Category,ProductName,NoOfpcAvailable,FloorPriceE,CelingPriceE,TargetPriceE,Description,FloorPriceF,CelingPriceF,TargetPriceF
HP,Printer,HP 100,10,50,80,60,DotMatrix,10000,15000,12000
HP,Printer,HP200,10,600,800,700,InkJet,650,850,750
HP,Scanner,HP 300,10,400,600,500,FlateBelt,550,750,650
HP,Scanner,HP 400,10,300,400,350,Integrated,400,500,350
Cannon,Printer,C 10,10,50,80,60,DotMatrix,5000,8000,6000
Cannon,Printer,C 20,10,600,800,700,InkJet,650,850,750
Cannon,Scanner,C 30,10,400,600,500,FlateBelt,550,750,650
Cannon,Printer,C 40,10,400,800,500,DotMatrix,550,850,650
Cannon,Printer,C 50,10,350,600,450,InkJet,650,850,750
Cannon,Scanner,C 60,10,300,800,400,FlateBelt,550,750,650
